assignment_3/quartus_project/simulation/modelsim/dump.vcd
$date
	Wed May 19 21:39:36 2021
$end
$version
	ModelSim Version 10.1d
$end
$timescale
	1ps
$end
$scope module dut $end
$var reg 1 ! clk $end
$scope module u_prime $end
$var parameter 32 " N $end
$var parameter 2 # S_INC $end
$var parameter 2 $ S_CHECK $end
$var wire 1 % clk $end
$var integer 32 & k $end
$var integer 32 ' count $end
$var integer 32 ( test $end
$var integer 32 ) check $end
$var reg 2 * state [1:0] $end
$upscope $end
$upscope $end
$enddefinitions $end
#0
$dumpvars
0!
b10 *
b1111101000 "
b1 #
b10 $
b1 &
b11 '
b1 (
b0 )
0%
$end
#40
1!
1%
b1 )
#80
0!
0%
#120
1!
1%
b10 &
b1 *
#160
0!
0%
#200
1!
1%
b100 '
b10 *
b0 )
#240
0!
0%
#280
1!
1%
b0 (
b1 )
#320
0!
0%
#360
1!
1%
b1 *
#400
0!
0%
#440
1!
1%
b101 '
b10 *
b0 )
b1 (
#480
0!
0%
#520
1!
1%
b1 )
#560
0!
0%
#600
1!
1%
b10 (
b10 )
#640
0!
0%
#680
1!
1%
b11 &
b1 *
#720
0!
0%
#760
1!
1%
b110 '
b10 *
b0 )
b1 (
#800
0!
0%
#840
1!
1%
b0 (
b1 )
#880
0!
0%
#920
1!
1%
b1 *
#960
0!
0%
#1000
1!
1%
b111 '
b10 *
b0 )
b1 (
#1040
0!
0%
#1080
1!
1%
b1 )
#1120
0!
0%
#1160
1!
1%
b10 )
#1200
0!
0%
#1240
1!
1%
b10 (
b11 )
#1280
0!
0%
#1320
1!
1%
b100 &
b1 *
#1360
0!
0%
#1400
1!
1%
b1000 '
b10 *
b0 )
b1 (
#1440
0!
0%
#1480
1!
1%
b0 (
b1 )
#1520
0!
0%
#1560
1!
1%
b1 *
#1600
0!
0%
#1640
1!
1%
b1001 '
b10 *
b0 )
b1 (
#1680
0!
0%
#1720
1!
1%
b1 )
#1760
0!
0%
#1800
1!
1%
b0 (
b10 )
#1840
0!
0%
#1880
1!
1%
b1 *
#1920
0!
0%
#1960
1!
1%
b1010 '
b10 *
b0 )
b1 (
#2000
0!
0%
#2040
1!
1%
b0 (
b1 )
#2080
0!
0%
#2120
1!
1%
b1 *
#2160
0!
0%
#2200
1!
1%
b1011 '
b10 *
b0 )
b1 (
#2240
0!
0%
#2280
1!
1%
b1 )
#2320
0!
0%
#2360
1!
1%
b10 (
b10 )
#2400
0!
0%
#2440
1!
1%
b1 (
b11 )
#2480
0!
0%
#2520
1!
1%
b100 (
b100 )
#2560
0!
0%
#2600
1!
1%
b101 &
b1 *
#2640
0!
0%
#2680
1!
1%
b1100 '
b10 *
b0 )
b1 (
#2720
0!
0%
#2760
1!
1%
b0 (
b1 )
#2800
0!
0%
#2840
1!
1%
b1 *
#2880
0!
0%
#2920
1!
1%
b1101 '
b10 *
b0 )
b1 (
#2960
0!
0%
#3000
1!
1%
b1 )
#3040
0!
0%
#3080
1!
1%
b10 )
#3120
0!
0%
#3160
1!
1%
b11 (
b11 )
#3200
0!
0%
#3240
1!
1%
b110 (
b100 )
#3280
0!
0%
#3320
1!
1%
b10 (
b101 )
#3360
0!
0%
#3400
1!
1%
b110 &
b1 *
#3440
0!
0%
#3480
1!
1%
b1110 '
b10 *
b0 )
b1 (
#3520
0!
0%
#3560
1!
1%
b0 (
b1 )
#3600
0!
0%
#3640
1!
1%
b1 *
#3680
0!
0%
#3720
1!
1%
b1111 '
b10 *
b0 )
b1 (
#3760
0!
0%
#3800
1!
1%
b1 )
#3840
0!
0%
#3880
1!
1%
b0 (
b10 )
#3920
0!
0%
#3960
1!
1%
b1 *
#4000
0!
0%
#4040
1!
1%
b10000 '
b10 *
b0 )
b1 (
#4080
0!
0%
#4120
1!
1%
b0 (
b1 )
#4160
0!
0%
#4200
1!
1%
b1 *
#4240
0!
0%
#4280
1!
1%
b10001 '
b10 *
b0 )
b1 (
#4320
0!
0%
#4360
1!
1%
b1 )
#4400
0!
0%
#4440
1!
1%
b10 (
b10 )
#4480
0!
0%
#4520
1!
1%
b11 )
#4560
0!
0%
#4600
1!
1%
b11 (
b100 )
#4640
0!
0%
#4680
1!
1%
b110 (
b101 )
#4720
0!
0%
#4760
1!
1%
b100 (
b110 )
#4800
0!
0%
#4840
1!
1%
b111 &
b1 *
#4880
0!
0%
#4920
1!
1%
b10010 '
b10 *
b0 )
b1 (
#4960
0!
0%
#5000
1!
1%
b0 (
b1 )
#5040
0!
0%
#5080
1!
1%
b1 *
#5120
0!
0%
#5160
1!
1%
b10011 '
b10 *
b0 )
b1 (
#5200
0!
0%
#5240
1!
1%
b1 )
#5280
0!
0%
#5320
1!
1%
b10 )
#5360
0!
0%
#5400
1!
1%
b100 (
b11 )
#5440
0!
0%
#5480
1!
1%
b101 (
b100 )
#5520
0!
0%
#5560
1!
1%
b1000 (
b101 )
#5600
0!
0%
#5640
1!
1%
b110 (
b110 )
#5680
0!
0%
#5720
1!
1%
b10 (
b111 )
#5760
0!
0%
#5800
1!
1%
b1000 &
b1 *
#5840
0!
0%
#5880
1!
1%
b10100 '
b10 *
b0 )
b1 (
#5920
0!
0%
#5960
1!
1%
b0 (
b1 )
#6000
0!
0%
#6040
1!
1%
b1 *
#6080
0!
0%
#6120
1!
1%
b10101 '
b10 *
b0 )
b1 (
#6160
0!
0%
#6200
1!
1%
b1 )
#6240
0!
0%
#6280
1!
1%
b0 (
b10 )
#6320
0!
0%
#6360
1!
1%
b1 *
#6400
0!
0%
#6440
1!
1%
b10110 '
b10 *
b0 )
b1 (
#6480
0!
0%
#6520
1!
1%
b0 (
b1 )
#6560
0!
0%
#6600
1!
1%
b1 *
#6640
0!
0%
#6680
1!
1%
b10111 '
b10 *
b0 )
b1 (
#6720
0!
0%
#6760
1!
1%
b1 )
#6800
0!
0%
#6840
1!
1%
b10 (
b10 )
#6880
0!
0%
#6920
1!
1%
b11 (
b11 )
#6960
0!
0%
#7000
1!
1%
b10 (
b100 )
#7040
0!
0%
#7080
1!
1%
b1 (
b101 )
#7120
0!
0%
#7160
1!
1%
b1010 (
b110 )
#7200
0!
0%
#7240
1!
1%
b110 (
b111 )
#7280
0!
0%
#7320
1!
1%
b100 (
b1000 )
#7360
0!
0%
#7400
1!
1%
b1001 &
b1 *
#7440
0!
0%
#7480
1!
1%
b11000 '
b10 *
b0 )
b1 (
#7520
0!
0%
#7560
1!
1%
b0 (
b1 )
#7600
0!
0%
#7640
1!
1%
b1 *
#7680
0!
0%
#7720
1!
1%
b11001 '
b10 *
b0 )
b1 (
#7760
0!
0%
#7800
1!
1%
b1 )
#7840
0!
0%
#7880
1!
1%
b10 )
#7920
0!
0%
#7960
1!
1%
b0 (
b11 )
#8000
0!
0%
#8040
1!
1%
b1 *
#8080
0!
0%
#8120
1!
1%
b11010 '
b10 *
b0 )
b1 (
#8160
0!
0%
#8200
1!
1%
b0 (
b1 )
#8240
0!
0%
#8280
1!
1%
b1 *
#8320
0!
0%
#8360
1!
1%
b11011 '
b10 *
b0 )
b1 (
#8400
0!
0%
#8440
1!
1%
b1 )
#8480
0!
0%
#8520
1!
1%
b0 (
b10 )
#8560
0!
0%
#8600
1!
1%
b1 *
#8640
0!
0%
#8680
1!
1%
b11100 '
b10 *
b0 )
b1 (
#8720
0!
0%
#8760
1!
1%
b0 (
b1 )
#8800
0!
0%
#8840
1!
1%
b1 *
#8880
0!
0%
#8920
1!
1%
b11101 '
b10 *
b0 )
b1 (
#8960
0!
0%
#9000
1!
1%
b1 )
#9040
0!
0%
#9080
1!
1%
b10 (
b10 )
#9120
0!
0%
#9160
1!
1%
b100 (
b11 )
#9200
0!
0%
#9240
1!
1%
b1 (
b100 )
#9280
0!
0%
#9320
1!
1%
b111 (
b101 )
#9360
0!
0%
#9400
1!
1%
b11 (
b110 )
#9440
0!
0%
#9480
1!
1%
b1100 (
b111 )
